
 P18201.COB                              Sat Aug 18 12:18:29 2018    Page   1
 line number source line   Microsoft COBOL                       Version 2.20

   1         IDENTIFICATION DIVISION.
   2         PROGRAM-ID. P18201.
   3         AUTHOR. AUGUSTO JAMES YAGO.
   4        *****************************************
   5        * PGM PARA DAR NOME E APELIDO AO AMIGO  *
   6        *****************************************
   7        *----------------------------------------------------------------
   8         ENVIRONMENT DIVISION.
   9         CONFIGURATION SECTION.
  10         SPECIAL-NAMES.
  11                           DECIMAL-POINT IS COMMA.
  12         INPUT-OUTPUT SECTION.
  13         FILE-CONTROL.
  14         SELECT CADAMIGO ASSIGN TO DISK
  15                      ORGANIZATION IS INDEXED
  16                      ACCESS MODE  IS DYNAMIC
  17                      RECORD KEY   IS CODAMIGO
  18                      FILE STATUS  IS ST-ERRO
  19                      ALTERNATE RECORD KEY IS CHAVE2 = DESCR
  20                                                        WITH DUPLICATES.
  21        *
  22        *-----------------------------------------------------------------
  23         DATA DIVISION.
  24         FILE SECTION.
  25         FD CADAMIGO
  26                 LABEL RECORD IS STANDARD
  27                 VALUE OF FILE-ID IS "CADAMIGO.DAT".
  28         01 REGAMIGO.
  29                          03 CODAMIGO                             PIC 9(06
  30                          03 APELIDO                          PIC X(12).
  31                          03 NOME                                 PIC X(35
  32                          03 EMAIL                                PIC X(35
  33        *          03 DESCR           PIC X(30).
  34        *          03 UNID            PIC X(02).
  35        *          03 QUANT           PIC 9(05)V9.
  36        *          03 PRECMD          PIC 9(06)V999.
  37        *          03 VRESTOQ         PIC 9(10)v99.
  38        *          03 FUNCIONARIO     PIC X(30).
  39        *          03 ALMOXARIFADO    PIC 9(01).
  40        *
  41        *-----------------------------------------------------------------
  42         WORKING-STORAGE SECTION.
  43    
  44             77 WS-MENS                                   PIC X(99) VALUE
  45             77 WS-CONT                                   PIC 9(04) VALUE
  46    
  47             77 WS-ACT                            PIC 9(02) VALUE ZEROS.
  48             77 WS-SEL                    PIC 9(01) VALUE ZEROS.
  49    
  50             77 WS-OPCAO                          PIC X(01) VALUE SPACES.
  51    
  52        *-----------------------------------------------------------------
  53         PROCEDURE DIVISION.
  54    
  55             RT-INICIALIZA                                SECTION.
  56    
  57                          PERFORM RT-INICIO.

 P18201.COB                              Sat Aug 18 12:18:29 2018    Page   2
 line number source line   Microsoft COBOL                       Version 2.20

  58    
  59             RT-INICIALIZAX.                              EXIT.
  60    
  61             RT-INICIO                                    SECTION.
  62                     OPEN I-O CADAMIGO
  63             IF ST-ERRO NOT = "00"
  64                 IF ST-ERRO = "30"
  65                        OPEN OUTPUT CADAMIGO
  66                        MOVE "*** ARQUIVO CADAMIGO SENDO CRIADO **" TO WS-
  67                                            CLOSE CADAMIGO
  68    
  69                        PERFORM ROT-MENS THRU ROT-MENS-FIM
  70                        GO TO RT-INICIO
  71                  ELSE
  72                        MOVE "ERRO NA ABERTURA DO ARQUIVO CADAMIGO" TO WS-
  73                        PERFORM ROT-MENS THRU ROT-MENS-FIM
  74                        GO TO ROT-FIM
  75              ELSE
  76                  NEXT SENTENCE.
  77             RT-INICIOX.                                  EXIT.
  78        *
  79         INC-001.
  80                  MOVE ZEROS              TO CODAMIGO.
  81                                  MOVE SPACES                     TO APELI
  82    
  83    
  84    
  85                  DISPLAY (01, 01) ERASE.
  86                  DISPLAY (01, 20) "CADASTRO DE ALUNO"
  87                  DISPLAY (04, 01) "CODIGO            : "
  88                  DISPLAY (05, 01) "APELIDO           : "
  89                  DISPLAY (06, 01) "NOME              : "
  90                  DISPLAY (07, 01) "EMAIL             : "
  91        INC-002.
  92                  ACCEPT  (04, 21) CODAMIGO
  93                  ACCEPT WS-ACT FROM ESCAPE KEY
  94    
  95                                  IF WS-ACT = 02
  96                     CLOSE CADAMIGO
  97                     GO TO ROT-FIM.
  98                  IF CODAMIGO  = 0
  99                     MOVE "*** AMIGO INVALIDO ***" TO WS-MENS
 100                     PERFORM ROT-MENS THRU ROT-MENS-FIM
 101                     GO TO INC-002.
 102         LER-PRODUTO01.
 103                  MOVE 0 TO WS-SEL.
 104                  READ CADAMIGO.
 105                  IF ST-ERRO NOT = "23"
 106                     IF ST-ERRO = "00"
 107                        DISPLAY (05, 12) APELIDO
 108                        DISPLAY (06, 12) NOME
 109                        DISPLAY (07, 12) EMAIL
 110    
 111                                            MOVE "*** AMIGO CADASTRAD0 ***
 112                        PERFORM ROT-MENS THRU ROT-MENS-FIM
 113                        MOVE 1 TO WS-SEL
 114                        GO TO ACE-001

 P18201.COB                              Sat Aug 18 12:18:29 2018    Page   3
 line number source line   Microsoft COBOL                       Version 2.20

 115                     ELSE
 116                        MOVE "ERRO NA LEITURA ARQUIVO PRODUTO"   TO MENS
 117                        PERFORM ROT-MENS THRU ROT-MENS-FIM
 118                        GO TO ROT-FIM
 119                  ELSE
 120                     NEXT SENTENCE.
 121         INC-003.
 122                  ACCEPT (05, 21) APELIDO
 123                  ACCEPT WS-ACT FROM ESCAPE KEY
 124                  IF WS-ACT = 02 GO TO INC-002.
 125         INC-004.
 126                  ACCEPT (06, 21) NOME
 127                  ACCEPT WS-ACT FROM ESCAPE KEY
 128                  IF WS-ACT = 02 GO TO INC-003.
 129         INC-005.
 130                  ACCEPT (07, 21) EMAIL
 131                  ACCEPT WS-ACT FROM ESCAPE KEY
 132                  IF WS-ACT = 02 GO TO INC-004.
 133    
 134    
 135        *
 136                  IF WS-SEL = 1 GO TO ALT-OPC.
 137    
 138         INC-OPC.
 139                  MOVE "S" TO WS-OPCAO
 140                  DISPLAY (23, 40) "DADOS OK (S/N) : ".
 141                  ACCEPT (23, 57) WS-OPCAO WITH UPDATE
 142                  ACCEPT WS-ACT FROM ESCAPE KEY
 143                  IF WS-ACT = 02 GO TO INC-005.
 144                  IF WS-OPCAO = "N" OR "n"
 145                     MOVE "*** DADOS RECUSADOS PELO OPERADOR ***" TO WS-ME
 146                     PERFORM ROT-MENS THRU ROT-MENS-FIM
 147                     GO TO INC-001.
 148                  IF W-OPCAO NOT = "S" AND "s"
 149                     MOVE "*** DIGITE APENAS S=SIM e N=NAO ***" TO WS-MENS
 150                     PERFORM ROT-MENS THRU ROT-MENS-FIM
 151                     GO TO INC-OPC.
 152         INC-WR1.
 153                  WRITE REGAMIGO
 154                  IF ST-ERRO = "00" OR "02"
 155                        MOVE "*** DADOS GRAVADOS *** " TO MENS
 156                        PERFORM ROT-MENS THRU ROT-MENS-FIM
 157                        GO TO INC-001.
 158                  IF ST-ERRO = "22"
 159                        MOVE "*** AMIGO JA EXISTE ***" TO MENS
 160                        PERFORM ROT-MENS THRU ROT-MENS-FIM
 161                        GO TO INC-001
 162                  ELSE
 163                        MOVE "ERRO NA GRAVACAO DO ARQUIVO DE AMIGOS"
 164                                                         TO MENS
 165                        PERFORM ROT-MENS THRU ROT-MENS-FIM
 166                        GO TO ROT-FIM.
 167        *
 168        *****************************************
 169        * ROTINA DE CONSULTA/ALTERACAO/EXCLUSAO *
 170        *****************************************
 171        *

 P18201.COB                              Sat Aug 18 12:18:29 2018    Page   4
 line number source line   Microsoft COBOL                       Version 2.20

 172         ACE-001.
 173                  DISPLAY (23, 12)
 174                       "F1=NOVO REGISTRO   F2=ALTERAR   F3=EXCLUIR"
 175                  ACCEPT (23, 55) WS-OPCAO
 176                  ACCEPT WS-ACT FROM ESCAPE KEY
 177                  IF WS-ACT NOT = 02 AND WS-ACT NOT = 03 AND WS-ACT NOT =
 178                     GO TO ACE-001.
 179                  MOVE SPACES TO WS-MENS
 180                  DISPLAY (23, 12) WS-MENS
 181                  IF WS-ACT = 02
 182                     MOVE 02 TO WS-SEL
 183                     GO TO INC-001.
 184                  IF WS-ACT = 03
 185                     GO TO INC-003.
 186        *
 187         EXC-OPC.
 188                  DISPLAY (23, 40) "EXCLUIR   (S/N) : ".
 189                  ACCEPT (23, 57) WS-OPCAO
 190                  IF WS-OPCAO = "N" OR "n"
 191                     MOVE "*** REGISTRO NAO EXCLUIDO ***" TO WS-MENS
 192                     PERFORM ROT-MENS THRU ROT-MENS-FIM
 193                     GO TO INC-001.
 194                  IF WS-OPCAO NOT = "S" AND "s"
 195                     MOVE "*** DIGITE APENAS S=SIM  e  N=NAO ***" TO WS-ME
 196                     PERFORM ROT-MENS THRU ROT-MENS-FIM
 197                     GO TO EXC-OPC.
 198         EXC-DL1.
 199                  DELETE PRODUTO RECORD
 200                  IF ST-ERRO = "00"
 201                     MOVE "*** REGISTRO EXCLUIDO ***           " TO MENS
 202                     PERFORM ROT-MENS THRU ROT-MENS-FIM
 203                     GO TO INC-001.
 204                  MOVE "ERRO NA EXCLUSAO DO REGISTRO "   TO MENS
 205                  PERFORM ROT-MENS THRU ROT-MENS-FIM
 206                  GO TO ROT-FIM.
 207        *
 208         ALT-OPC.
 209                  DISPLAY (23, 40) "ALTERAR  (S/N) : ".
 210                  ACCEPT (23, 57) WS-OPCAO
 211                  ACCEPT WS-ACT FROM ESCAPE KEY
 212                  IF WS-ACT = 02 GO TO INC-005.
 213                  IF WS-OPCAO = "N" OR "n"
 214                     MOVE "*** INFORMACOES NAO ALTERADAS *** " TO WS-MENS
 215                     PERFORM ROT-MENS THRU ROT-MENS-FIM
 216                     GO TO INC-001.
 217                  IF WS-OPCAO NOT = "S" AND "s"
 218                     MOVE "*** DIGITE APENAS S=SIM  e  N=NAO ***" TO WS-ME
 219                     PERFORM ROT-MENS THRU ROT-MENS-FIM
 220                     GO TO ALT-OPC.
 221         ALT-RW1.
 222                  REWRITE REGAMIGO
 223                  IF ST-ERRO = "00" OR "02"
 224                     MOVE "*** REGISTRO ALTERADO ***         " TO WS-MENS
 225                     PERFORM ROT-MENS THRU ROT-MENS-FIM
 226                     GO TO INC-001.
 227                  MOVE "ERRO NA EXCLUSAO DO REGISTRO PRODUTO"   TO WS-MENS
 228                  PERFORM ROT-MENS THRU ROT-MENS-FIM

 P18201.COB                              Sat Aug 18 12:18:29 2018    Page   5
 line number source line   Microsoft COBOL                       Version 2.20

 229                  GO TO ROT-FIM.
 230        *
 231        **********************
 232        * ROTINA DE FIM      *
 233        **********************
 234        *
 235         ROT-FIM.
 236                  DISPLAY (01, 01) ERASE
 237                  EXIT PROGRAM.
 238         ROT-FIMP.
 239                  EXIT PROGRAM.
 240    
 241         ROT-FIMS.
 242                  STOP RUN.
 243        *
 244        **********************
 245        * ROTINA DE MENSAGEM *
 246        **********************
 247        *
 248         ROT-MENS.
 249                  MOVE ZEROS TO WS-CONT.
 250         ROT-MENS1.
 251                 DISPLAY (23, 12) WS-MENS.
 252                             DISPLAY 'APELIDO           :'APELIDO.
 253                             DISPLAY 'NOME              :'NOME.
 254                             DISPLAY 'EMAIL             :'EMAIL.
 255         ROT-MENS2.
 256                  ADD 1 TO WS-CONT
 257                  IF WS-CONT < 3000
 258                     GO TO ROT-MENS2
 259                  ELSE
 260                     DISPLAY (23, 12) LIMPA.
 261         ROT-MENS-FIM.
 262                  EXIT.
 263         ROT-ALFA-FIM.
0029:Improper PICTURE. PIC X assumed. 
0030:/W/Terminal period assumed above. 
0031:Improper PICTURE. PIC X assumed. 
0032:/W/Terminal period assumed above. 
0032:Improper PICTURE. PIC X assumed. 
0042:Unrecognizable element is ignored.  WORKING-STORAGE 
0042:Unrecognizable element is ignored.  SECTION 
0044:/W/WORKING-STORAGE assumed here. 
0045:Unrecognizable element is ignored.  WS-CONT 
0045:/W/Redundant clause ignored. PIC 
0045:/W/WORKING-STORAGE assumed here. 
0047:Unrecognizable element is ignored.  WS-ACT
0047:/W/Redundant clause ignored. PIC 
0047:/W/WORKING-STORAGE assumed here. 
0048:/W/WORKING-STORAGE assumed here. 
0050:/W/WORKING-STORAGE assumed here. 
0053:Unrecognizable element is ignored.  ST-ERRO 
0053:Improper Split key definition. DESCR 
0055:Unrecognizable element is ignored.  RT-INICIALIZA 
0055:Unrecognizable element is ignored.  SECTION 
0057:A paragraph declaration is required here. PERFORM 
0057:Procedure-name is unresolvable. RT-INICIO 

 P18201.COB                              Sat Aug 18 12:18:29 2018    Page   6
 line number source line   Microsoft COBOL                       Version 2.20

0059:Unrecognizable element is ignored.  RT-INICIALIZAX
0061:Unrecognizable element is ignored.  RT-INICIO 
0061:Unrecognizable element is ignored.  SECTION 
0062:A paragraph declaration is required here. OPEN
0063:Unrecognizable element is ignored.  ST-ERRO 
0063:Unrecognizable element is ignored.  NOT 
0063:Unrecognizable element is ignored.  = 
0063:Unrecognizable element is ignored.  00
0064:Unrecognizable element is ignored.  ST-ERRO 
0064:Unrecognizable element is ignored.  = 
0064:Unrecognizable element is ignored.  30
0066:Improper punctuation. 
0066:Unrecognizable element is ignored.  WS
0070:Procedure-name is unresolvable. RT-INICIO 
0072:Improper punctuation. 
0072:Unrecognizable element is ignored.  WS
0077:Unrecognizable element is ignored.  RT-INICIOX
0081:Unrecognizable element is ignored.  APELI 
0090:Improper character in column 7. 
0091:/W/Terminal period assumed above. 
0093:Statement deleted due to erroneous syntax. WS-ACT
0093:Unrecognizable element is ignored.  FROM
0093:Unrecognizable element is ignored.  ESCAPE
0093:Unrecognizable element is ignored.  KEY 
0095:Unrecognizable element is ignored.  WS-ACT
0095:Unrecognizable element is ignored.  = 
0095:Unrecognizable element is ignored.  02
0101:Procedure-name is unresolvable. INC-002 
0105:Unrecognizable element is ignored.  ST-ERRO 
0105:Unrecognizable element is ignored.  NOT 
0105:Unrecognizable element is ignored.  = 
0105:Unrecognizable element is ignored.  23
0106:Unrecognizable element is ignored.  ST-ERRO 
0106:Unrecognizable element is ignored.  = 
0106:Unrecognizable element is ignored.  00
0112:Incomplete (or too long) statement deleted. 
0113:Incomplete (or too long) statement deleted. 
0115:Unrecognizable element is ignored.  ELSE
0116:Unrecognizable element is ignored.  MENS
0119:Unrecognizable element is ignored.  ELSE
0120:Unrecognizable element is ignored.  NEXT
0120:Unrecognizable element is ignored.  SENTENCE
0123:Statement deleted due to erroneous syntax. WS-ACT
0123:Unrecognizable element is ignored.  FROM
0123:Unrecognizable element is ignored.  ESCAPE
0123:Unrecognizable element is ignored.  KEY 
0124:Unrecognizable element is ignored.  WS-ACT
0124:Unrecognizable element is ignored.  = 
0124:Unrecognizable element is ignored.  02
0124:Procedure-name is unresolvable. INC-002 
0127:Statement deleted due to erroneous syntax. WS-ACT
0127:Unrecognizable element is ignored.  FROM
0127:Unrecognizable element is ignored.  ESCAPE
0127:Unrecognizable element is ignored.  KEY 
0128:Unrecognizable element is ignored.  WS-ACT
0128:Unrecognizable element is ignored.  = 
0128:Unrecognizable element is ignored.  02

 P18201.COB                              Sat Aug 18 12:18:29 2018    Page   7
 line number source line   Microsoft COBOL                       Version 2.20

0131:Statement deleted due to erroneous syntax. WS-ACT
0131:Unrecognizable element is ignored.  FROM
0131:Unrecognizable element is ignored.  ESCAPE
0131:Unrecognizable element is ignored.  KEY 
0132:Unrecognizable element is ignored.  WS-ACT
0132:Unrecognizable element is ignored.  = 
0132:Unrecognizable element is ignored.  02
0142:Statement deleted due to erroneous syntax. WS-ACT
0142:Unrecognizable element is ignored.  FROM
0142:Unrecognizable element is ignored.  ESCAPE
0142:Unrecognizable element is ignored.  KEY 
0143:Unrecognizable element is ignored.  WS-ACT
0143:Unrecognizable element is ignored.  = 
0143:Unrecognizable element is ignored.  02
0145:Unrecognizable element is ignored.  WS-ME 
0148:Unrecognizable element is ignored.  W-OPCAO 
0148:Unrecognizable element is ignored.  NOT 
0148:Unrecognizable element is ignored.  = 
0148:Unrecognizable element is ignored.  S 
0148:Unrecognizable element is ignored.  AND 
0148:Unrecognizable element is ignored.  s 
0154:Unrecognizable element is ignored.  ST-ERRO 
0154:Unrecognizable element is ignored.  = 
0154:Unrecognizable element is ignored.  00
0154:Unrecognizable element is ignored.  OR
0154:Unrecognizable element is ignored.  02
0155:Unrecognizable element is ignored.  MENS
0158:Unrecognizable element is ignored.  ST-ERRO 
0158:Unrecognizable element is ignored.  = 
0158:Unrecognizable element is ignored.  22
0159:Unrecognizable element is ignored.  MENS
0164:Unrecognizable element is ignored.  MENS
0176:Statement deleted due to erroneous syntax. WS-ACT
0176:Unrecognizable element is ignored.  FROM
0176:Unrecognizable element is ignored.  ESCAPE
0176:Unrecognizable element is ignored.  KEY 
0177:Unrecognizable element is ignored.  WS-ACT
0177:Unrecognizable element is ignored.  NOT 
0177:Unrecognizable element is ignored.  = 
0177:Unrecognizable element is ignored.  02
0177:Unrecognizable element is ignored.  AND 
0177:Unrecognizable element is ignored.  WS-ACT
0177:Unrecognizable element is ignored.  NOT 
0177:Unrecognizable element is ignored.  = 
0177:Unrecognizable element is ignored.  03
0177:Unrecognizable element is ignored.  AND 
0177:Unrecognizable element is ignored.  WS-ACT
0177:Unrecognizable element is ignored.  NOT 
0177:Unrecognizable element is ignored.  = 
0181:Unrecognizable element is ignored.  WS-ACT
0181:Unrecognizable element is ignored.  = 
0181:Unrecognizable element is ignored.  02
0184:Unrecognizable element is ignored.  WS-ACT
0184:Unrecognizable element is ignored.  = 
0184:Unrecognizable element is ignored.  03
0195:Unrecognizable element is ignored.  WS-ME 
0199:Statement deleted because operand is not a file name. PRODUTO 

 P18201.COB                              Sat Aug 18 12:18:29 2018    Page   8
 line number source line   Microsoft COBOL                       Version 2.20

0199:Unrecognizable element is ignored.  RECORD
0200:Unrecognizable element is ignored.  ST-ERRO 
0200:Unrecognizable element is ignored.  = 
0200:Unrecognizable element is ignored.  00
0201:Unrecognizable element is ignored.  MENS
0204:Unrecognizable element is ignored.  MENS
0211:Statement deleted due to erroneous syntax. WS-ACT
0211:Unrecognizable element is ignored.  FROM
0211:Unrecognizable element is ignored.  ESCAPE
0211:Unrecognizable element is ignored.  KEY 
0212:Unrecognizable element is ignored.  WS-ACT
0212:Unrecognizable element is ignored.  = 
0212:Unrecognizable element is ignored.  02
0218:Unrecognizable element is ignored.  WS-ME 
0223:Unrecognizable element is ignored.  ST-ERRO 
0223:Unrecognizable element is ignored.  = 
0223:Unrecognizable element is ignored.  00
0223:Unrecognizable element is ignored.  OR
0223:Unrecognizable element is ignored.  02
0249:Unrecognizable element is ignored.  WS-CONT 
0252:Improper punctuation. 
0253:Improper punctuation. 
0254:Improper punctuation. 
0256:Statement deleted due to erroneous syntax. WS-CONT 
0257:Unrecognizable element is ignored.  WS-CONT 
0257:Unrecognizable element is ignored.  < 
0257:Unrecognizable element is ignored.  3000
0260:Statement deleted due to erroneous syntax. LIMPA 

  164 errors or warnings

   Data area size =  1178
   Code area size =  1184

