
 CADCEP.COB                              Sat Nov 24 11:58:39 2018    Page   1
 line number source line   Microsoft COBOL                       Version 2.20

   1         IDENTIFICATION DIVISION.
   2         PROGRAM-ID. SP18203.
   3         AUTHOR. GABRIEl SILVA.
   4        ***************************************
   5        * CRUD DE CEP                         *
   6        ***************************************
   7        *----------------------------------------------------------------
   8         ENVIRONMENT DIVISION.
   9         CONFIGURATION SECTION.
  10         SPECIAL-NAMES.
  11                           DECIMAL-POINT IS COMMA.
  12         INPUT-OUTPUT SECTION.
  13         FILE-CONTROL.
  14         SELECT REGCEP ASSIGN TO DISK
  15                      ORGANIZATION IS INDEXED
  16                      ACCESS MODE  IS DYNAMIC
  17                      RECORD KEY   IS FORM-CODIGO
  18                      FILE STATUS  IS ST-ERRO
  19                      ALTERNATE RECORD KEY IS FORM-LOGRADOURO
  20                                              WITH DUPLICATES.
  21        *
  22        *-----------------------------------------------------------------
  23         DATA DIVISION.
  24         FILE SECTION.
  25         FD REGCEP
  26                 DATA RECORD IS CEP
  27                 LABEL RECORD IS STANDARD
  28                 VALUE OF FILE-ID IS "REGCEP.DAT".
  29         01 CEP.
  30                  03 FORM-CODIGO             PIC 9(08).
  31                  03 FORM-LOGRADOURO         PIC X(35).
  32                                  03 FORM-BAIRRO             PIC X(20).
  33                                  03 FORM-CIDADE             PIC X(20).
  34                  03 FORM-LATITUDE           PIC X(12).
  35                  03 FORM-LONGITUDE          PIC X(12).
  36                  03 FORM-ID-REGIAO          PIC 9(01).
  37                  03 FORM-REGIAO-DESCRICAO   PIC X(12).
  38                  03 FORM-ID-UF              PIC X(02).
  39                  03 FORM-UF-DESCRICAO       PIC X(20).
  40    
  41    
  42        *
  43        *-----------------------------------------------------------------
  44         WORKING-STORAGE SECTION.
  45         77 W-SEL        PIC 9(01) VALUE ZEROS.
  46         77 W-CONT       PIC 9(06) VALUE ZEROS.
  47         77 ST-ERRO      PIC X(02) VALUE "00".
  48         77 W-ACT        PIC 9(02) VALUE ZEROS.
  49         77 LIMPA        PIC X(50) VALUE SPACES.
  50         77 MENSAGEM     PIC X(50) VALUE SPACES.
  51    
  52        *
  53         01 TABCEP.
  54            03 T1 PIC X(64) VALUE
  55            "NORTE        NORDENTE     SUL          SUDESTE      ".
  56            03 T2 PIC X(64) VALUE
  57            "LESTE        OESTE        RURAL        NAO INFORMADO".

 CADCEP.COB                              Sat Nov 24 11:58:39 2018    Page   2
 line number source line   Microsoft COBOL                       Version 2.20

  58    
  59         01 TABAUX REDEFINES TABCEP.
  60             03 TDA        PIC X(13) OCCURS 8 TIMES.
  61        *---------------------------------------------------------
  62         SCREEN SECTION.
  63         01  TELA.
  64             05  LINE 01  COLUMN 01
  65                 VALUE  "Cadastro de CEP".
  66             05  LINE 02  COLUMN 01
  67                 VALUE  "CODIGO".
  68             05  LINE 03  COLUMN 01
  69                 VALUE  "LOGRADOURO".
  70             05  LINE 04  COLUMN 01
  71                 VALUE  "BAIRRO".
  72             05  LINE 05  COLUMN 01
  73                 VALUE  "CIDADE".
  74             05  LINE 06  COLUMN 01
  75                 VALUE  "UF".
  76             05  LINE 07  COLUMN 01
  77                 VALUE  "LONGITUDE".
  78             05  LINE 08  COLUMN 01
  79                 VALUE  "LATITUDE".
  80             05  LINE 09  COLUMN 01
  81                 VALUE  "REGIAO".
  82             05  TELA-CODIGO
  83                 LINE 02  COLUMN 08  PIC 9(08)
  84                 USING  FORM-CODIGO.
  85             05  LOGRADOURO
  86                 LINE 03  COLUMN 12  PIC X(35)
  87                 USING  FORM-LOGRADOURO.
  88             05  BAIRRO
  89                 LINE 04  COLUMN 08  PIC X(20)
  90                 USING  FORM-BAIRRO.
  91             05  CIDADE
  92                 LINE 05  COLUMN 08  PIC X(20)
  93                 USING  FORM-CIDADE.
  94             05  UF-ID
  95                 LINE 06  COLUMN 04  PIC X(02)
  96                 USING  FORM-ID-UF.
  97             05  ESTADP
  98                 LINE 06  COLUMN 07  PIC X(20)
  99                 USING  FORM-UF-DESCRICAO.
 100             05  LONGITUDE
 101                 LINE 07  COLUMN 11  PIC X(12)
 102                 USING  FORM-LONGITUDE.
 103             05  LATITUDE
 104                 LINE 08  COLUMN 10  PIC X(12)
 105                 USING  FORM-LATITUDE.
 106             05  ID-REGIAO
 107                 LINE 09  COLUMN 08  PIC 9(01)
 108                 USING  FORM-ID-REGIAO.
 109             05  REGIAO
 110                 LINE 09  COLUMN 10  PIC X(12)
 111                 USING  FORM-REGIAO-DESCRICAO.
 112        *-----------------------------------------------------------------
 113         PROCEDURE DIVISION.
 114         INICIO.

 CADCEP.COB                              Sat Nov 24 11:58:39 2018    Page   3
 line number source line   Microsoft COBOL                       Version 2.20

 115        *
 116         INC-OP0.
 117             OPEN I-O REGCEP
 118             IF ST-ERRO NOT = "00"
 119                 IF ST-ERRO = "30"
 120                        OPEN OUTPUT REGCEP
 121                        MOVE "*** CRIANDO ARQUIVO... **" TO MENSAGEM
 122                        PERFORM ROT-MENSAGEM THRU ROT-MENSAGEM-FIM
 123                        CLOSE REGCEP
 124                        GO TO INICIO
 125                     ELSE
 126                        MOVE "ERRO AO TENTAR ABRIR ARQUIVO" TO MENSAGEM
 127                        PERFORM ROT-MENSAGEM THRU ROT-MENSAGEM-FIM
 128                        GO TO ROT-FIM
 129                  ELSE
 130                      NEXT SENTENCE.
 131         INC-001.
 132                  MOVE ZEROS  TO FORM-CODIGO
 133                                                 FORM-ID-REGIAO
 134                                 FORM-ID-UF.
 135                  MOVE SPACES TO FORM-LOGRADOURO
 136                                             FORM-BAIRRO
 137                                                             FORM-CIDADE
 138                                 FORM-UF-DESCRICAO
 139                                                             FORM-LONGITUD
 140                                                             FORM-LATITUDE
 141                                                             FORM-REGIAO-D
 142                  DISPLAY TELA.
 143    
 144         INC-APELIDO.
 145                  ACCEPT TAPELIDO
 146                  ACCEPT W-ACT FROM ESCAPE KEY
 147                   IF W-ACT = 02
 148                     CLOSE AMIGOS
 149                     GO TO ROT-FIM.
 150                  IF FORM-CODIGO = SPACES
 151                     MOVE "*** APELIDO NÃO VÁLIDO ***" TO MENSAGEM
 152                     PERFORM ROT-MENSAGEM THRU   ROT-MENSAGEM-FIM
 153                     GO TO INC-APELIDO.
 154         LER-AMIGOS.
 155                  MOVE 0 TO W-SEL
 156                  READ AMIGOS
 157                  IF ST-ERRO NOT = "23"
 158                     IF ST-ERRO = "00"
 159                        DISPLAY TELA
 160                        MOVE "*** ESTE AMIGO JÁ FOI CADASTRADO ***" TO ME
 161                        PERFORM ROT-MENSAGEM THRU ROT-MENSAGEM-FIM
 162                        MOVE 1 TO W-SEL
 163                        GO TO ACE-001
 164                     ELSE
 165                        MOVE "ERRO NA LEITURA ARQUIVO PRODUTO"   TO MENSAG
 166                        PERFORM ROT-MENSAGEM THRU ROT-MENSAGEM-FIM
 167                        GO TO ROT-FIM
 168                  ELSE
 169                     NEXT SENTENCE.
 170         INC-NOME.
 171                  ACCEPT TNOME

 CADCEP.COB                              Sat Nov 24 11:58:39 2018    Page   4
 line number source line   Microsoft COBOL                       Version 2.20

 172                  ACCEPT W-ACT FROM ESCAPE KEY
 173                  IF FORM-LOGRADOURO = SPACES
 174                       MOVE "O CAMPO NOME É INVÁLIDO" TO MENSAGEM
 175                       PERFORM ROT-MENSAGEM THRU ROT-MENSAGEM-FIM
 176                       GO TO INC-NOME
 177                  IF W-ACT = 02 GO TO INC-APELIDO.
 178         INC-ENDERECO.
 179                  ACCEPT  TENDERECO
 180                  ACCEPT W-ACT FROM ESCAPE KEY
 181                  IF FORM-LOGRA = SPACES
 182                      MOVE "LOGRADOURO EM BRANCO" TO MENSAGEM
 183                      PERFORM ROT-MENSAGEM THRU ROT-MENSAGEM-FIM
 184                      GO TO INC-ENDERECO
 185                  IF W-ACT = 02 GO TO INC-NOME.
 186         INC-NUMEND.
 187                  ACCEPT  TNUMEND
 188                  ACCEPT W-ACT FROM ESCAPE KEY
 189                  IF FORM-NUMEND = ZEROS
 190                      MOVE "NUMERO DA CASA EM BRANCO" TO MENSAGEM
 191                      PERFORM ROT-MENSAGEM THRU ROT-MENSAGEM-FIM
 192                      GO TO INC-NUMEND
 193                  IF W-ACT = 02 GO TO INC-ENDERECO.
 194         INC-COMP.
 195                  ACCEPT  TCOMP
 196                  ACCEPT W-ACT FROM ESCAPE KEY
 197                  IF W-ACT = 02 GO TO INC-NUMEND.
 198         INC-BAIRRO.
 199                  ACCEPT  TBAIRRO
 200                  ACCEPT W-ACT FROM ESCAPE KEY
 201                  IF FORM-BAIRRO = SPACES
 202                      MOVE "BAIRRO EM BRANCO" TO MENSAGEM
 203                      PERFORM ROT-MENSAGEM THRU ROT-MENSAGEM-FIM
 204                      GO TO INC-BAIRRO
 205                  IF W-ACT = 02 GO TO INC-COMP.
 206         INC-CIDADE.
 207                  ACCEPT  TCIDADE
 208                  ACCEPT W-ACT FROM ESCAPE KEY
 209                  IF FORM-CIDADE = SPACES
 210                      MOVE "DIGITE O BAIRRO" TO MENSAGEM
 211                      PERFORM ROT-MENSAGEM THRU ROT-MENSAGEM-FIM
 212                      GO TO INC-CIDADE
 213                  IF W-ACT = 02 GO TO INC-BAIRRO.
 214         INC-ESTADO.
 215                  ACCEPT  TESTADO
 216                  ACCEPT W-ACT FROM ESCAPE KEY
 217                                  IF W-ACT = 02 GO TO INC-CIDADE.
 218                  IF FORM-ESTADO = SPACES
 219                      MOVE "DIGITE O ESTADO" TO MENSAGEM
 220                      PERFORM ROT-MENSAGEM THRU ROT-MENSAGEM-FIM
 221                      GO TO INC-ESTADO.
 222                  IF FORM-ESTADO NOT ="AC"
 223                  IF FORM-ESTADO NOT ="AL"
 224                  IF FORM-ESTADO  NOT ="AP"
 225                  IF FORM-ESTADO  NOT ="AM"
 226                  IF FORM-ESTADO  NOT ="BA"
 227                  IF FORM-ESTADO  NOT ="CE"
 228                  IF FORM-ESTADO  NOT ="DF"

 CADCEP.COB                              Sat Nov 24 11:58:39 2018    Page   5
 line number source line   Microsoft COBOL                       Version 2.20

 229                  IF FORM-ESTADO  NOT ="ES"
 230                  IF FORM-ESTADO  NOT ="GO"
 231                  IF FORM-ESTADO  NOT ="MA"
 232                  IF FORM-ESTADO  NOT ="MT"
 233                  IF FORM-ESTADO  NOT ="MS"
 234                  IF FORM-ESTADO  NOT ="MG"
 235                  IF FORM-ESTADO  NOT ="PA"
 236                  IF FORM-ESTADO  NOT ="PB"
 237                  IF FORM-ESTADO  NOT ="PR"
 238                  IF FORM-ESTADO  NOT ="PE"
 239                  IF FORM-ESTADO  NOT ="PI"
 240                  IF FORM-ESTADO  NOT ="RJ"
 241                  IF FORM-ESTADO  NOT ="RN"
 242                  IF FORM-ESTADO  NOT ="RS"
 243                  IF FORM-ESTADO  NOT ="RO"
 244                  IF FORM-ESTADO  NOT ="RR"
 245                  IF FORM-ESTADO  NOT ="SC"
 246                  IF FORM-ESTADO  NOT ="SP"
 247                  IF FORM-ESTADO  NOT ="SE"
 248                  IF FORM-ESTADO  NOT ="TO"
 249                              MOVE "ESTADO NÃO VÁLIDO" TO MENSAGEM
 250                      PERFORM ROT-MENSAGEM THRU ROT-MENSAGEM-FIM
 251                                          GO TO INC-ESTADO.
 252         INC-DDD.
 253                  ACCEPT  TDDD
 254                  ACCEPT W-ACT FROM ESCAPE KEY
 255                  IF FORM-DDD = ZEROS
 256                      MOVE "DDD EM BRANCO" TO     MENSAGEM
 257                      PERFORM ROT-MENSAGEM THRU ROT-MENSAGEM-FIM
 258                      GO TO INC-DDD
 259                  IF W-ACT = 02 GO TO INC-ESTADO.
 260         INC-TELEFONE.
 261                  ACCEPT  TTELEFONE
 262                  ACCEPT W-ACT FROM ESCAPE KEY
 263                  IF FORM-TELEFONE = ZEROS
 264                      MOVE "TELEFONE EM BRANCO" TO MENSAGEM
 265                      PERFORM ROT-MENSAGEM THRU ROT-MENSAGEM-FIM
 266                      GO TO INC-TELEFONE
 267                  IF W-ACT = 02 GO TO INC-DDD.
 268         INC-DATANASC.
 269                  ACCEPT  TDATANASC
 270                  ACCEPT W-ACT FROM ESCAPE KEY
 271                                  IF W-ACT= 02 GO TO INC-TELEFONE.
 272                                  IF FORM-DIA = ZEROS
 273    
 274                                  OR > 31
 275                                      MOVE "DIA INCORRETO" TO MENSAGEM
 276                      PERFORM ROT-MENSAGEM THRU ROT-MENSAGEM-FIM
 277                                          GO TO INC-DATANASC.
 278                                  IF FORM-MES = ZEROS OR > 12
 279                                      MOVE "MES INCORRETO" TO MENSAGEM
 280                      PERFORM ROT-MENSAGEM THRU ROT-MENSAGEM-FIM
 281                                          GO TO INC-DATANASC.
 282                                  IF FORM-SEC = ZEROS OR > 21
 283                                      MOVE "ANO INCORRETO" TO MENSAGEM
 284                      PERFORM ROT-MENSAGEM THRU ROT-MENSAGEM-FIM
 285                                          GO TO INC-DATANASC.

 CADCEP.COB                              Sat Nov 24 11:58:39 2018    Page   6
 line number source line   Microsoft COBOL                       Version 2.20

 286         INC-EMAIL.
 287                  ACCEPT TEMAIL
 288                  ACCEPT W-ACT FROM ESCAPE KEY
 289                  IF FORM-EMAIL = SPACES
 290                      MOVE "DIGITE EMAIL DO AMIGO" TO MENSAGEM
 291                      PERFORM ROT-MENSAGEM THRU ROT-MENSAGEM-FIM
 292                      GO TO INC-EMAIL.
 293                  IF W-ACT = 02 GO TO INC-DATANASC
 294                                  GO TO INC-DATANASC.
 295         INC-TIPO.
 296                  ACCEPT TTIPO
 297                  ACCEPT W-ACT FROM ESCAPE KEY
 298                  IF W-ACT= 02 GO TO INC-SEXO.
 299                  IF W-SEL = 1
 300                                GO TO ALT-OPC.
 301                  MOVE TDA(FORM-TIPO) TO TEXTOTIPO
 302                  DISPLAY TMOSTRATIPO
 303                                  GO TO INC-SEXO.
 304         INC-SEXO.
 305                  ACCEPT  TSEXO
 306                  ACCEPT W-ACT FROM ESCAPE KEY
 307                  IF W-ACT= 02 GO TO INC-TIPO.
 308                  IF FORM-SEXO = "M" OR "m"
 309                     MOVE "MASCULINO" TO TEXTOSEXO
 310                  ELSE
 311                     IF FORM-SEXO NOT = "F" AND "f"
 312                       MOVE "SEXO DO AMIGO INCORRETO" TO MENSAGEM
 313                       PERFORM ROT-MENSAGEM THRU ROT-MENSAGEM-FIM
 314                       GO TO INC-SEXO
 315                     ELSE
 316                       MOVE "FEMININO" TO TEXTOSEXO.
 317                  DISPLAY TMOSTRASEXO
 318                                  GO TO INC-GENERO.
 319         INC-GENERO.
 320                  ACCEPT  TGENERO
 321                  ACCEPT W-ACT FROM ESCAPE KEY
 322                  IF FORM-GENERO = SPACES
 323                      MOVE "DIGITE ESTADO DO AMIGO" TO MENSAGEM
 324                      PERFORM ROT-MENSAGEM THRU ROT-MENSAGEM-FIM
 325                      GO TO INC-GENERO
 326                  IF W-ACT = 02 GO TO INC-SEXO.
 327         INC-OPC.
 328                  MOVE "S" TO W-OPCAO
 329                  DISPLAY (23, 40) "DADOS OK (S/N) : ".
 330                  ACCEPT (23, 57) W-OPCAO WITH UPDATE
 331                  ACCEPT W-ACT FROM ESCAPE KEY
 332                  IF W-ACT = 02 GO TO INC-TIPO.
 333                  IF W-OPCAO = "N" OR "n"
 334                     MOVE "*** DADOS RECUSADOS PELO USUARIO ***" TO MENSAG
 335                     PERFORM ROT-MENSAGEM THRU ROT-MENSAGEM-FIM
 336                     GO TO INC-001.
 337                  IF W-OPCAO NOT = "S" AND "s"
 338                     MOVE "*** DIGITE APENAS S=SIM e N=NAO ***" TO MENSAGE
 339                     PERFORM ROT-MENSAGEM THRU ROT-MENSAGEM-FIM
 340                     GO TO INC-OPC.
 341         INC-WR1.
 342                  WRITE REGAMIGO

 CADCEP.COB                              Sat Nov 24 11:58:39 2018    Page   7
 line number source line   Microsoft COBOL                       Version 2.20

 343                  IF ST-ERRO = "00" OR "02"
 344                        MOVE "*** DADOS GRAVADOS *** " TO MENSAGEM
 345                        PERFORM ROT-MENSAGEM THRU ROT-MENSAGEM-FIM
 346                        GO TO INC-001.
 347                  IF ST-ERRO = "22"
 348                        MOVE "AMIGO JA EXISTE" TO MENSAGEM
 349                        PERFORM ROT-MENSAGEM THRU ROT-MENSAGEM-FIM
 350                        GO TO INC-001
 351                  ELSE
 352                        MOVE "ERRO NA GRAVACAO DO ARQUIVO DE AMIGOS"
 353                                                         TO MENSAGEM
 354                        PERFORM ROT-MENSAGEM THRU ROT-MENSAGEM-FIM
 355                        GO TO ROT-FIM.
 356        *
 357        *****************************************
 358        * CONSULTA/ALTERAÇÃO E EXLUSÃO *
 359        *****************************************
 360        *
 361         ACE-001.
 362                  DISPLAY (23, 12)
 363                       "F1=NOVO REGISTRO   F2=ALTERAR   F3=EXCLUIR"
 364                  ACCEPT (23, 55) W-OPCAO
 365                  ACCEPT W-ACT FROM ESCAPE KEY
 366                  IF W-ACT NOT = 02 AND W-ACT NOT = 03 AND W-ACT NOT = 04
 367                     GO TO ACE-001.
 368                  MOVE SPACES TO MENSAGEM
 369                  DISPLAY (23, 12) MENSAGEM
 370                  IF W-ACT = 02
 371                     MOVE 02 TO W-SEL
 372                     GO TO INC-001.
 373                  IF W-ACT = 03
 374                     GO TO INC-NOME.
 375        *
 376         EXC-OPC.
 377                  DISPLAY (23, 40) "EXCLUIR   (S/N) : ".
 378                  ACCEPT (23, 57) W-OPCAO
 379                  IF W-OPCAO = "N" OR "n"
 380                     MOVE "*** REGISTRO NAO EXCLUIDO ***" TO MENSAGEM
 381                     PERFORM ROT-MENSAGEM THRU ROT-MENSAGEM-FIM
 382                     GO TO INC-001.
 383                  IF W-OPCAO NOT = "S" AND "s"
 384                     MOVE "*** DIGITE S=SIM  e  N=NAO ***" TO MENSAGEM
 385                     PERFORM ROT-MENSAGEM THRU ROT-MENSAGEM-FIM
 386                     GO TO EXC-OPC.
 387         EXC-DL1.
 388                  DELETE AMIGOS RECORD
 389                  IF ST-ERRO = "00"
 390                     MOVE "*** REGISTRO EXCLUIDO ***           " TO MENSAG
 391                     PERFORM ROT-MENSAGEM THRU ROT-MENSAGEM-FIM
 392                     GO TO INC-001.
 393                  MOVE "ERRO NA EXCLUSAO DO REGISTRO "   TO MENSAGEM
 394                  PERFORM ROT-MENSAGEM THRU ROT-MENSAGEM-FIM
 395                  GO TO ROT-FIM.
 396        *
 397         ALT-OPC.
 398                  DISPLAY (23, 40) "ALTERAR  (S/N) : ".
 399                  ACCEPT (23, 57) W-OPCAO

 CADCEP.COB                              Sat Nov 24 11:58:39 2018    Page   8
 line number source line   Microsoft COBOL                       Version 2.20

 400                  ACCEPT W-ACT FROM ESCAPE KEY
 401                  IF W-ACT = 02 GO TO INC-DDD.
 402                  IF W-OPCAO = "N" OR "n"
 403                     MOVE "*** INFORMACOES NAO ALTERADAS *** " TO MENSAGEM
 404                     PERFORM ROT-MENSAGEM THRU ROT-MENSAGEM-FIM
 405                     GO TO INC-001.
 406                  IF W-OPCAO NOT = "S" AND "s"
 407                     MOVE "*** DIGITE APENAS S=SIM  e  N=NAO ***" TO MENSA
 408                     PERFORM ROT-MENSAGEM THRU ROT-MENSAGEM-FIM
 409                     GO TO ALT-OPC.
 410         ALT-RW1.
 411                  REWRITE REGAMIGO
 412                  IF ST-ERRO = "00" OR "02"
 413                     MOVE "*** REGISTRO ALTERADO ***         " TO MENSAGEM
 414                     PERFORM ROT-MENSAGEM THRU ROT-MENSAGEM-FIM
 415                     GO TO INC-001.
 416                  MOVE "ERRO AO EXCLUIR"   TO MENSAGEM
 417                  PERFORM ROT-MENSAGEM THRU ROT-MENSAGEM-FIM
 418                  GO TO ROT-FIM.
 419    
 420         ROT-FIM.
 421                  DISPLAY (01, 01) ERASE
 422                  EXIT PROGRAM.
 423         ROT-FIMP.
 424                  EXIT PROGRAM.
 425    
 426         ROT-FIMS.
 427                  STOP RUN.
 428        *
 429        **********************
 430        * APRESENTAÇÃO DE MENSAGEM *
 431        **********************
 432        *
 433         ROT-MENSAGEM.
 434                  MOVE ZEROS TO W-CONT.
 435         ROT-MENSAGEM1.
 436                 DISPLAY (22, 16) MENSAGEM.
 437         ROT-MENSAGEM2.
 438                  ADD 1 TO W-CONT
 439                  IF W-CONT < 1000
 440                     GO TO ROT-MENSAGEM2
 441                  ELSE
 442                     DISPLAY (22, 16) LIMPA.
 443         ROT-MENSAGEM-FIM.
 444                  EXIT.
 445         ROT-ALFA-FIM.
0139:Unrecognizable element is ignored.  FORM-LONGITUD 
0140:Unrecognizable element is ignored.  FORM-LATITUDE 
0141:Unrecognizable element is ignored.  FORM-REGIAO-D 
0145:Statement deleted due to erroneous syntax. TAPELIDO
0148:Statement deleted because operand is not a file name. AMIGOS
0156:Statement deleted because operand is not a file name. AMIGOS
0160:Unrecognizable element is ignored.  ME
0165:Unrecognizable element is ignored.  MENSAG
0171:Statement deleted due to erroneous syntax. TNOME 
0179:Statement deleted due to erroneous syntax. TENDERECO 
0181:Unrecognizable element is ignored.  FORM-LOGRA

 CADCEP.COB                              Sat Nov 24 11:58:39 2018    Page   9
 line number source line   Microsoft COBOL                       Version 2.20

0181:Unrecognizable element is ignored.  = 
0181:Unrecognizable element is ignored.  SPACES
0187:Statement deleted due to erroneous syntax. TNUMEND 
0189:Unrecognizable element is ignored.  FORM-NUMEND 
0189:Unrecognizable element is ignored.  = 
0189:Unrecognizable element is ignored.  ZEROS 
0195:Statement deleted due to erroneous syntax. TCOMP 
0199:Statement deleted due to erroneous syntax. TBAIRRO 
0207:Statement deleted due to erroneous syntax. TCIDADE 
0215:Statement deleted due to erroneous syntax. TESTADO 
0218:Unrecognizable element is ignored.  FORM-ESTADO 
0218:Unrecognizable element is ignored.  = 
0218:Unrecognizable element is ignored.  SPACES
0222:Unrecognizable element is ignored.  FORM-ESTADO 
0222:Unrecognizable element is ignored.  NOT 
0222:Unrecognizable element is ignored.  = 
0222:Unrecognizable element is ignored.  AC
0223:Unrecognizable element is ignored.  FORM-ESTADO 
0223:Unrecognizable element is ignored.  NOT 
0223:Unrecognizable element is ignored.  = 
0223:Unrecognizable element is ignored.  AL
0224:Unrecognizable element is ignored.  FORM-ESTADO 
0224:Unrecognizable element is ignored.  NOT 
0224:Unrecognizable element is ignored.  = 
0224:Unrecognizable element is ignored.  AP
0225:Unrecognizable element is ignored.  FORM-ESTADO 
0225:Unrecognizable element is ignored.  NOT 
0225:Unrecognizable element is ignored.  = 
0225:Unrecognizable element is ignored.  AM
0226:Unrecognizable element is ignored.  FORM-ESTADO 
0226:Unrecognizable element is ignored.  NOT 
0226:Unrecognizable element is ignored.  = 
0226:Unrecognizable element is ignored.  BA
0227:Unrecognizable element is ignored.  FORM-ESTADO 
0227:Unrecognizable element is ignored.  NOT 
0227:Unrecognizable element is ignored.  = 
0227:Unrecognizable element is ignored.  CE
0228:Unrecognizable element is ignored.  FORM-ESTADO 
0228:Unrecognizable element is ignored.  NOT 
0228:Unrecognizable element is ignored.  = 
0228:Unrecognizable element is ignored.  DF
0229:Unrecognizable element is ignored.  FORM-ESTADO 
0229:Unrecognizable element is ignored.  NOT 
0229:Unrecognizable element is ignored.  = 
0229:Unrecognizable element is ignored.  ES
0230:Unrecognizable element is ignored.  FORM-ESTADO 
0230:Unrecognizable element is ignored.  NOT 
0230:Unrecognizable element is ignored.  = 
0230:Unrecognizable element is ignored.  GO
0231:Unrecognizable element is ignored.  FORM-ESTADO 
0231:Unrecognizable element is ignored.  NOT 
0231:Unrecognizable element is ignored.  = 
0231:Unrecognizable element is ignored.  MA
0232:Unrecognizable element is ignored.  FORM-ESTADO 
0232:Unrecognizable element is ignored.  NOT 
0232:Unrecognizable element is ignored.  = 
0232:Unrecognizable element is ignored.  MT

 CADCEP.COB                              Sat Nov 24 11:58:39 2018    Page  10
 line number source line   Microsoft COBOL                       Version 2.20

0233:Unrecognizable element is ignored.  FORM-ESTADO 
0233:Unrecognizable element is ignored.  NOT 
0233:Unrecognizable element is ignored.  = 
0233:Unrecognizable element is ignored.  MS
0234:Unrecognizable element is ignored.  FORM-ESTADO 
0234:Unrecognizable element is ignored.  NOT 
0234:Unrecognizable element is ignored.  = 
0234:Unrecognizable element is ignored.  MG
0235:Unrecognizable element is ignored.  FORM-ESTADO 
0235:Unrecognizable element is ignored.  NOT 
0235:Unrecognizable element is ignored.  = 
0235:Unrecognizable element is ignored.  PA
0236:Unrecognizable element is ignored.  FORM-ESTADO 
0236:Unrecognizable element is ignored.  NOT 
0236:Unrecognizable element is ignored.  = 
0236:Unrecognizable element is ignored.  PB
0237:Unrecognizable element is ignored.  FORM-ESTADO 
0237:Unrecognizable element is ignored.  NOT 
0237:Unrecognizable element is ignored.  = 
0237:Unrecognizable element is ignored.  PR
0238:Unrecognizable element is ignored.  FORM-ESTADO 
0238:Unrecognizable element is ignored.  NOT 
0238:Unrecognizable element is ignored.  = 
0238:Unrecognizable element is ignored.  PE
0239:Unrecognizable element is ignored.  FORM-ESTADO 
0239:Unrecognizable element is ignored.  NOT 
0239:Unrecognizable element is ignored.  = 
0239:Unrecognizable element is ignored.  PI
0240:Unrecognizable element is ignored.  FORM-ESTADO 
0240:Unrecognizable element is ignored.  NOT 
0240:Unrecognizable element is ignored.  = 
0240:Unrecognizable element is ignored.  RJ
0241:Unrecognizable element is ignored.  FORM-ESTADO 
0241:Unrecognizable element is ignored.  NOT 
0241:Unrecognizable element is ignored.  = 
0241:Unrecognizable element is ignored.  RN
0242:Unrecognizable element is ignored.  FORM-ESTADO 
0242:Unrecognizable element is ignored.  NOT 
0242:Unrecognizable element is ignored.  = 
0242:Unrecognizable element is ignored.  RS
0243:Unrecognizable element is ignored.  FORM-ESTADO 
0243:Unrecognizable element is ignored.  NOT 
0243:Unrecognizable element is ignored.  = 
0243:Unrecognizable element is ignored.  RO
0244:Unrecognizable element is ignored.  FORM-ESTADO 
0244:Unrecognizable element is ignored.  NOT 
0244:Unrecognizable element is ignored.  = 
0244:Unrecognizable element is ignored.  RR
0245:Unrecognizable element is ignored.  FORM-ESTADO 
0245:Unrecognizable element is ignored.  NOT 
0245:Unrecognizable element is ignored.  = 
0245:Unrecognizable element is ignored.  SC
0246:Unrecognizable element is ignored.  FORM-ESTADO 
0246:Unrecognizable element is ignored.  NOT 
0246:Unrecognizable element is ignored.  = 
0246:Unrecognizable element is ignored.  SP
0247:Unrecognizable element is ignored.  FORM-ESTADO 

 CADCEP.COB                              Sat Nov 24 11:58:39 2018    Page  11
 line number source line   Microsoft COBOL                       Version 2.20

0247:Unrecognizable element is ignored.  NOT 
0247:Unrecognizable element is ignored.  = 
0247:Unrecognizable element is ignored.  SE
0248:Unrecognizable element is ignored.  FORM-ESTADO 
0248:Unrecognizable element is ignored.  NOT 
0248:Unrecognizable element is ignored.  = 
0248:Unrecognizable element is ignored.  TO
0253:Statement deleted due to erroneous syntax. TDDD
0255:Unrecognizable element is ignored.  FORM-DDD
0255:Unrecognizable element is ignored.  = 
0255:Unrecognizable element is ignored.  ZEROS 
0261:Statement deleted due to erroneous syntax. TTELEFONE 
0263:Unrecognizable element is ignored.  FORM-TELEFONE 
0263:Unrecognizable element is ignored.  = 
0263:Unrecognizable element is ignored.  ZEROS 
0269:Statement deleted due to erroneous syntax. TDATANASC 
0272:Unrecognizable element is ignored.  FORM-DIA
0272:Unrecognizable element is ignored.  = 
0272:Unrecognizable element is ignored.  ZEROS 
0274:Unrecognizable element is ignored.  OR
0274:Unrecognizable element is ignored.  > 
0274:Unrecognizable element is ignored.  31
0278:Unrecognizable element is ignored.  FORM-MES
0278:Unrecognizable element is ignored.  = 
0278:Unrecognizable element is ignored.  ZEROS 
0278:Unrecognizable element is ignored.  OR
0278:Unrecognizable element is ignored.  > 
0278:Unrecognizable element is ignored.  12
0282:Unrecognizable element is ignored.  FORM-SEC
0282:Unrecognizable element is ignored.  = 
0282:Unrecognizable element is ignored.  ZEROS 
0282:Unrecognizable element is ignored.  OR
0282:Unrecognizable element is ignored.  > 
0282:Unrecognizable element is ignored.  21
0287:Statement deleted due to erroneous syntax. TEMAIL
0289:Unrecognizable element is ignored.  FORM-EMAIL
0289:Unrecognizable element is ignored.  = 
0289:Unrecognizable element is ignored.  SPACES
0296:Statement deleted due to erroneous syntax. TTIPO 
0301:Unrecognizable element is ignored.  FORM-TIPO 
0301:Unrecognizable element is ignored.  ) 
0301:Unrecognizable element is ignored.  TO
0301:Unrecognizable element is ignored.  TEXTOTIPO 
0302:Statement deleted due to erroneous syntax. TMOSTRATIPO 
0305:Statement deleted due to erroneous syntax. TSEXO 
0308:Unrecognizable element is ignored.  FORM-SEXO 
0308:Unrecognizable element is ignored.  = 
0308:Unrecognizable element is ignored.  M 
0308:Unrecognizable element is ignored.  OR
0308:Unrecognizable element is ignored.  m 
0309:Unrecognizable element is ignored.  TEXTOSEXO 
0311:Unrecognizable element is ignored.  FORM-SEXO 
0311:Unrecognizable element is ignored.  NOT 
0311:Unrecognizable element is ignored.  = 
0311:Unrecognizable element is ignored.  F 
0311:Unrecognizable element is ignored.  AND 
0311:Unrecognizable element is ignored.  f 

 CADCEP.COB                              Sat Nov 24 11:58:39 2018    Page  12
 line number source line   Microsoft COBOL                       Version 2.20

0316:Unrecognizable element is ignored.  TEXTOSEXO 
0317:Statement deleted due to erroneous syntax. TMOSTRASEXO 
0320:Statement deleted due to erroneous syntax. TGENERO 
0322:Unrecognizable element is ignored.  FORM-GENERO 
0322:Unrecognizable element is ignored.  = 
0322:Unrecognizable element is ignored.  SPACES
0328:Unrecognizable element is ignored.  W-OPCAO 
0330:Statement deleted due to erroneous syntax. W-OPCAO 
0330:Unrecognizable element is ignored.  WITH
0330:Unrecognizable element is ignored.  UPDATE
0333:Unrecognizable element is ignored.  W-OPCAO 
0333:Unrecognizable element is ignored.  = 
0333:Unrecognizable element is ignored.  N 
0333:Unrecognizable element is ignored.  OR
0333:Unrecognizable element is ignored.  n 
0334:Unrecognizable element is ignored.  MENSAG
0337:Unrecognizable element is ignored.  W-OPCAO 
0337:Unrecognizable element is ignored.  NOT 
0337:Unrecognizable element is ignored.  = 
0337:Unrecognizable element is ignored.  S 
0337:Unrecognizable element is ignored.  AND 
0337:Unrecognizable element is ignored.  s 
0338:Unrecognizable element is ignored.  MENSAGE 
0342:Statement deleted due to erroneous syntax. REGAMIGO
0364:Statement deleted due to erroneous syntax. W-OPCAO 
0378:Statement deleted due to erroneous syntax. W-OPCAO 
0379:Unrecognizable element is ignored.  W-OPCAO 
0379:Unrecognizable element is ignored.  = 
0379:Unrecognizable element is ignored.  N 
0379:Unrecognizable element is ignored.  OR
0379:Unrecognizable element is ignored.  n 
0383:Unrecognizable element is ignored.  W-OPCAO 
0383:Unrecognizable element is ignored.  NOT 
0383:Unrecognizable element is ignored.  = 
0383:Unrecognizable element is ignored.  S 
0383:Unrecognizable element is ignored.  AND 
0383:Unrecognizable element is ignored.  s 
0388:Statement deleted because operand is not a file name. AMIGOS
0388:Unrecognizable element is ignored.  RECORD
0390:Unrecognizable element is ignored.  MENSAG
0399:Statement deleted due to erroneous syntax. W-OPCAO 
0402:Unrecognizable element is ignored.  W-OPCAO 
0402:Unrecognizable element is ignored.  = 
0402:Unrecognizable element is ignored.  N 
0402:Unrecognizable element is ignored.  OR
0402:Unrecognizable element is ignored.  n 
0406:Unrecognizable element is ignored.  W-OPCAO 
0406:Unrecognizable element is ignored.  NOT 
0406:Unrecognizable element is ignored.  = 
0406:Unrecognizable element is ignored.  S 
0406:Unrecognizable element is ignored.  AND 
0406:Unrecognizable element is ignored.  s 
0407:Unrecognizable element is ignored.  MENSA 
0411:Statement deleted due to erroneous syntax. REGAMIGO

  236 errors or warnings


 CADCEP.COB                              Sat Nov 24 11:58:39 2018    Page  13
 line number source line   Microsoft COBOL                       Version 2.20

   Data area size =  1808
   Code area size =  2460

