
 P18201.COB                              Sat Aug 18 12:33:17 2018    Page   1
 line number source line   Microsoft COBOL                       Version 2.20

   1         IDENTIFICATION DIVISION.
   2         PROGRAM-ID. P18201.
   3         AUTHOR. AUGUSTO JAMES YAGO.
   4        *****************************************
   5        * PGM PARA DAR NOME E APELIDO AO AMIGO  *
   6        *****************************************
   7        *----------------------------------------------------------------
   8         ENVIRONMENT DIVISION.
   9         CONFIGURATION SECTION.
  10         SPECIAL-NAMES.
  11                           DECIMAL-POINT IS COMMA.
  12         INPUT-OUTPUT SECTION.
  13         FILE-CONTROL.
  14         SELECT CADAMIGO ASSIGN TO DISK
  15                      ORGANIZATION IS INDEXED
  16                      ACCESS MODE  IS DYNAMIC
  17                      RECORD KEY   IS CODAMIGO
  18                      FILE STATUS  IS ST-ERRO
  19                      ALTERNATE RECORD KEY IS CHAVE2 = DESCR
  20                                                        WITH DUPLICATES.
  21        *
  22        *-----------------------------------------------------------------
  23         DATA DIVISION.
  24         FILE SECTION.
  25         FD CADAMIGO
  26                 LABEL RECORD IS STANDARD
  27                 VALUE OF FILE-ID IS "CADAMIGO.DAT".
  28         01 REGAMIGO.
  29                          03 CODAMIGO                             PIC 9(06
  30                          03 APELIDO                          PIC X(12).
  31                          03 NOME                                 PIC X(35
  32                          03 EMAIL                                PIC X(35
  33        *-----------------------------------------------------------------
  34         WORKING-STORAGE SECTION.
  35    
  36             77 WS-MENS                                   PIC X(99) VALUE
  37             77 WS-CONT                                   PIC 9(04) VALUE
  38    
  39             77 WS-ACT                            PIC 9(02) VALUE ZEROS.
  40             77 WS-SEL                    PIC 9(01) VALUE ZEROS.
  41    
  42             77 WS-OPCAO                          PIC X(01) VALUE SPACES.
  43    
  44        *-----------------------------------------------------------------
  45         PROCEDURE DIVISION.
  46    
  47             INICIO.
  48        *
  49         INC-OP0.
  50                     OPEN I-O CADAMIGO
  51             IF ST-ERRO NOT = "00"
  52                 IF ST-ERRO = "30"
  53                        OPEN OUTPUT CADAMIGO
  54                        MOVE "*** ARQUIVO CADAMIGO SENDO CRIADO **" TO WS-
  55                                            CLOSE CADAMIGO
  56    
  57                        PERFORM ROT-MENS THRU ROT-MENS-FIM

 P18201.COB                              Sat Aug 18 12:33:17 2018    Page   2
 line number source line   Microsoft COBOL                       Version 2.20

  58                        GO TO INICIO.
  59                  ELSE
  60                        MOVE "ERRO NA ABERTURA DO ARQUIVO CADAMIGO" TO WS-
  61                        PERFORM ROT-MENS THRU ROT-MENS-FIM
  62                        GO TO ROT-FIM
  63              ELSE
  64                  NEXT SENTENCE.
  65        *
  66         INC-001.
  67                  MOVE ZEROS              TO CODAMIGO.
  68                                  MOVE SPACES                     TO APELI
  69    
  70    
  71    
  72                  DISPLAY (01, 01) ERASE.
  73                  DISPLAY (01, 20) "CADASTRO DE ALUNO"
  74                  DISPLAY (04, 01) "CODIGO            : "
  75                  DISPLAY (05, 01) "APELIDO           : "
  76                  DISPLAY (06, 01) "NOME              : "
  77                  DISPLAY (07, 01) "EMAIL             : "
  78        INC-002.
  79                  ACCEPT  (04, 21) CODAMIGO
  80                  ACCEPT WS-ACT FROM ESCAPE KEY
  81    
  82                                  IF WS-ACT = 02
  83                     CLOSE CADAMIGO
  84                     GO TO ROT-FIM.
  85                  IF CODAMIGO  = 0
  86                     MOVE "*** AMIGO INVALIDO ***" TO WS-MENS
  87                     PERFORM ROT-MENS THRU ROT-MENS-FIM
  88                     GO TO INC-002.
  89         LER-PRODUTO01.
  90                  MOVE 0 TO WS-SEL.
  91                  READ CADAMIGO.
  92                  IF ST-ERRO NOT = "23"
  93                     IF ST-ERRO = "00"
  94                        DISPLAY (05, 12) APELIDO
  95                        DISPLAY (06, 12) NOME
  96                        DISPLAY (07, 12) EMAIL
  97    
  98                                            MOVE "*** AMIGO CADASTRAD0 ***
  99                        PERFORM ROT-MENS THRU ROT-MENS-FIM
 100                        MOVE 1 TO WS-SEL
 101                        GO TO ACE-001
 102                     ELSE
 103                        MOVE "ERRO NA LEITURA ARQUIVO PRODUTO"   TO MENS
 104                        PERFORM ROT-MENS THRU ROT-MENS-FIM
 105                        GO TO ROT-FIM
 106                  ELSE
 107                     NEXT SENTENCE.
 108         INC-003.
 109                  ACCEPT (05, 21) APELIDO
 110                  ACCEPT WS-ACT FROM ESCAPE KEY
 111                  IF WS-ACT = 02 GO TO INC-002.
 112         INC-004.
 113                  ACCEPT (06, 21) NOME
 114                  ACCEPT WS-ACT FROM ESCAPE KEY

 P18201.COB                              Sat Aug 18 12:33:17 2018    Page   3
 line number source line   Microsoft COBOL                       Version 2.20

 115                  IF WS-ACT = 02 GO TO INC-003.
 116         INC-005.
 117                  ACCEPT (07, 21) EMAIL
 118                  ACCEPT WS-ACT FROM ESCAPE KEY
 119                  IF WS-ACT = 02 GO TO INC-004.
 120    
 121    
 122        *
 123                  IF WS-SEL = 1 GO TO ALT-OPC.
 124    
 125         INC-OPC.
 126                  MOVE "S" TO WS-OPCAO
 127                  DISPLAY (23, 40) "DADOS OK (S/N) : ".
 128                  ACCEPT (23, 57) WS-OPCAO WITH UPDATE
 129                  ACCEPT WS-ACT FROM ESCAPE KEY
 130                  IF WS-ACT = 02 GO TO INC-005.
 131                  IF WS-OPCAO = "N" OR "n"
 132                     MOVE "*** DADOS RECUSADOS PELO OPERADOR ***" TO WS-ME
 133                     PERFORM ROT-MENS THRU ROT-MENS-FIM
 134                     GO TO INC-001.
 135                  IF W-OPCAO NOT = "S" AND "s"
 136                     MOVE "*** DIGITE APENAS S=SIM e N=NAO ***" TO WS-MENS
 137                     PERFORM ROT-MENS THRU ROT-MENS-FIM
 138                     GO TO INC-OPC.
 139         INC-WR1.
 140                  WRITE REGAMIGO
 141                  IF ST-ERRO = "00" OR "02"
 142                        MOVE "*** DADOS GRAVADOS *** " TO MENS
 143                        PERFORM ROT-MENS THRU ROT-MENS-FIM
 144                        GO TO INC-001.
 145                  IF ST-ERRO = "22"
 146                        MOVE "*** AMIGO JA EXISTE ***" TO MENS
 147                        PERFORM ROT-MENS THRU ROT-MENS-FIM
 148                        GO TO INC-001
 149                  ELSE
 150                        MOVE "ERRO NA GRAVACAO DO ARQUIVO DE AMIGOS"
 151                                                         TO MENS
 152                        PERFORM ROT-MENS THRU ROT-MENS-FIM
 153                        GO TO ROT-FIM.
 154        *
 155        *****************************************
 156        * ROTINA DE CONSULTA/ALTERACAO/EXCLUSAO *
 157        *****************************************
 158        *
 159         ACE-001.
 160                  DISPLAY (23, 12)
 161                       "F1=NOVO REGISTRO   F2=ALTERAR   F3=EXCLUIR"
 162                  ACCEPT (23, 55) WS-OPCAO
 163                  ACCEPT WS-ACT FROM ESCAPE KEY
 164                  IF WS-ACT NOT = 02 AND WS-ACT NOT = 03 AND WS-ACT NOT =
 165                     GO TO ACE-001.
 166                  MOVE SPACES TO WS-MENS
 167                  DISPLAY (23, 12) WS-MENS
 168                  IF WS-ACT = 02
 169                     MOVE 02 TO WS-SEL
 170                     GO TO INC-001.
 171                  IF WS-ACT = 03

 P18201.COB                              Sat Aug 18 12:33:17 2018    Page   4
 line number source line   Microsoft COBOL                       Version 2.20

 172                     GO TO INC-003.
 173        *
 174         EXC-OPC.
 175                  DISPLAY (23, 40) "EXCLUIR   (S/N) : ".
 176                  ACCEPT (23, 57) WS-OPCAO
 177                  IF WS-OPCAO = "N" OR "n"
 178                     MOVE "*** REGISTRO NAO EXCLUIDO ***" TO WS-MENS
 179                     PERFORM ROT-MENS THRU ROT-MENS-FIM
 180                     GO TO INC-001.
 181                  IF WS-OPCAO NOT = "S" AND "s"
 182                     MOVE "*** DIGITE APENAS S=SIM  e  N=NAO ***" TO WS-ME
 183                     PERFORM ROT-MENS THRU ROT-MENS-FIM
 184                     GO TO EXC-OPC.
 185         EXC-DL1.
 186                  DELETE CADAMIGO RECORD
 187                  IF ST-ERRO = "00"
 188                     MOVE "*** REGISTRO EXCLUIDO ***           " TO MENS
 189                     PERFORM ROT-MENS THRU ROT-MENS-FIM
 190                     GO TO INC-001.
 191                  MOVE "ERRO NA EXCLUSAO DO REGISTRO "   TO MENS
 192                  PERFORM ROT-MENS THRU ROT-MENS-FIM
 193                  GO TO ROT-FIM.
 194        *
 195         ALT-OPC.
 196                  DISPLAY (23, 40) "ALTERAR  (S/N) : ".
 197                  ACCEPT (23, 57) WS-OPCAO
 198                  ACCEPT WS-ACT FROM ESCAPE KEY
 199                  IF WS-ACT = 02 GO TO INC-005.
 200                  IF WS-OPCAO = "N" OR "n"
 201                     MOVE "*** INFORMACOES NAO ALTERADAS *** " TO WS-MENS
 202                     PERFORM ROT-MENS THRU ROT-MENS-FIM
 203                     GO TO INC-001.
 204                  IF WS-OPCAO NOT = "S" AND "s"
 205                     MOVE "*** DIGITE APENAS S=SIM  e  N=NAO ***" TO WS-ME
 206                     PERFORM ROT-MENS THRU ROT-MENS-FIM
 207                     GO TO ALT-OPC.
 208         ALT-RW1.
 209                  REWRITE REGAMIGO
 210                  IF ST-ERRO = "00" OR "02"
 211                     MOVE "*** REGISTRO ALTERADO ***         " TO WS-MENS
 212                     PERFORM ROT-MENS THRU ROT-MENS-FIM
 213                     GO TO INC-001.
 214                  MOVE "ERRO NA EXCLUSAO DO REGISTRO PRODUTO"   TO WS-MENS
 215                  PERFORM ROT-MENS THRU ROT-MENS-FIM
 216                  GO TO ROT-FIM.
 217        *
 218        **********************
 219        * ROTINA DE FIM      *
 220        **********************
 221        *
 222         ROT-FIM.
 223                  DISPLAY (01, 01) ERASE
 224                  EXIT PROGRAM.
 225         ROT-FIMP.
 226                  EXIT PROGRAM.
 227    
 228         ROT-FIMS.

 P18201.COB                              Sat Aug 18 12:33:17 2018    Page   5
 line number source line   Microsoft COBOL                       Version 2.20

 229                  STOP RUN.
 230        *
 231        **********************
 232        * ROTINA DE MENSAGEM *
 233        **********************
 234        *
 235         ROT-MENS.
 236                  MOVE ZEROS TO WS-CONT.
 237         ROT-MENS1.
 238                 DISPLAY (23, 12) WS-MENS.
 239    
 240         ROT-MENS2.
 241                  ADD 1 TO WS-CONT
 242                  IF WS-CONT < 3000
 243                     GO TO ROT-MENS2
 244                  ELSE
 245                     DISPLAY (23, 12) LIMPA.
 246         ROT-MENS-FIM.
 247                  EXIT.
 248         ROT-ALFA-FIM.
0029:Improper PICTURE. PIC X assumed. 
0030:/W/Terminal period assumed above. 
0031:Improper PICTURE. PIC X assumed. 
0032:/W/Terminal period assumed above. 
0032:Improper PICTURE. PIC X assumed. 
0034:Unrecognizable element is ignored.  WORKING-STORAGE 
0034:Unrecognizable element is ignored.  SECTION 
0036:/W/WORKING-STORAGE assumed here. 
0037:Unrecognizable element is ignored.  WS-CONT 
0037:/W/Redundant clause ignored. PIC 
0037:/W/WORKING-STORAGE assumed here. 
0039:Unrecognizable element is ignored.  WS-ACT
0039:/W/Redundant clause ignored. PIC 
0039:/W/WORKING-STORAGE assumed here. 
0040:/W/WORKING-STORAGE assumed here. 
0042:/W/WORKING-STORAGE assumed here. 
0045:Unrecognizable element is ignored.  ST-ERRO 
0045:Improper Split key definition. DESCR 
0047:Unrecognizable element is ignored.  INICIO
0051:Unrecognizable element is ignored.  ST-ERRO 
0051:Unrecognizable element is ignored.  NOT 
0051:Unrecognizable element is ignored.  = 
0051:Unrecognizable element is ignored.  00
0052:Unrecognizable element is ignored.  ST-ERRO 
0052:Unrecognizable element is ignored.  = 
0052:Unrecognizable element is ignored.  30
0054:Improper punctuation. 
0054:Unrecognizable element is ignored.  WS
0058:Procedure-name is unresolvable. INICIO
0059:Unrecognizable element is ignored.  ELSE
0060:Improper punctuation. 
0060:Unrecognizable element is ignored.  WS
0063:Unrecognizable element is ignored.  ELSE
0064:Unrecognizable element is ignored.  NEXT
0064:Unrecognizable element is ignored.  SENTENCE
0068:Unrecognizable element is ignored.  APELI 
0077:Improper character in column 7. 

 P18201.COB                              Sat Aug 18 12:33:17 2018    Page   6
 line number source line   Microsoft COBOL                       Version 2.20

0078:/W/Terminal period assumed above. 
0080:Statement deleted due to erroneous syntax. WS-ACT
0080:Unrecognizable element is ignored.  FROM
0080:Unrecognizable element is ignored.  ESCAPE
0080:Unrecognizable element is ignored.  KEY 
0082:Unrecognizable element is ignored.  WS-ACT
0082:Unrecognizable element is ignored.  = 
0082:Unrecognizable element is ignored.  02
0088:Procedure-name is unresolvable. INC-002 
0092:Unrecognizable element is ignored.  ST-ERRO 
0092:Unrecognizable element is ignored.  NOT 
0092:Unrecognizable element is ignored.  = 
0092:Unrecognizable element is ignored.  23
0093:Unrecognizable element is ignored.  ST-ERRO 
0093:Unrecognizable element is ignored.  = 
0093:Unrecognizable element is ignored.  00
0099:Incomplete (or too long) statement deleted. 
0100:Incomplete (or too long) statement deleted. 
0102:Unrecognizable element is ignored.  ELSE
0103:Unrecognizable element is ignored.  MENS
0106:Unrecognizable element is ignored.  ELSE
0107:Unrecognizable element is ignored.  NEXT
0107:Unrecognizable element is ignored.  SENTENCE
0110:Statement deleted due to erroneous syntax. WS-ACT
0110:Unrecognizable element is ignored.  FROM
0110:Unrecognizable element is ignored.  ESCAPE
0110:Unrecognizable element is ignored.  KEY 
0111:Unrecognizable element is ignored.  WS-ACT
0111:Unrecognizable element is ignored.  = 
0111:Unrecognizable element is ignored.  02
0111:Procedure-name is unresolvable. INC-002 
0114:Statement deleted due to erroneous syntax. WS-ACT
0114:Unrecognizable element is ignored.  FROM
0114:Unrecognizable element is ignored.  ESCAPE
0114:Unrecognizable element is ignored.  KEY 
0115:Unrecognizable element is ignored.  WS-ACT
0115:Unrecognizable element is ignored.  = 
0115:Unrecognizable element is ignored.  02
0118:Statement deleted due to erroneous syntax. WS-ACT
0118:Unrecognizable element is ignored.  FROM
0118:Unrecognizable element is ignored.  ESCAPE
0118:Unrecognizable element is ignored.  KEY 
0119:Unrecognizable element is ignored.  WS-ACT
0119:Unrecognizable element is ignored.  = 
0119:Unrecognizable element is ignored.  02
0129:Statement deleted due to erroneous syntax. WS-ACT
0129:Unrecognizable element is ignored.  FROM
0129:Unrecognizable element is ignored.  ESCAPE
0129:Unrecognizable element is ignored.  KEY 
0130:Unrecognizable element is ignored.  WS-ACT
0130:Unrecognizable element is ignored.  = 
0130:Unrecognizable element is ignored.  02
0132:Unrecognizable element is ignored.  WS-ME 
0135:Unrecognizable element is ignored.  W-OPCAO 
0135:Unrecognizable element is ignored.  NOT 
0135:Unrecognizable element is ignored.  = 
0135:Unrecognizable element is ignored.  S 

 P18201.COB                              Sat Aug 18 12:33:17 2018    Page   7
 line number source line   Microsoft COBOL                       Version 2.20

0135:Unrecognizable element is ignored.  AND 
0135:Unrecognizable element is ignored.  s 
0141:Unrecognizable element is ignored.  ST-ERRO 
0141:Unrecognizable element is ignored.  = 
0141:Unrecognizable element is ignored.  00
0141:Unrecognizable element is ignored.  OR
0141:Unrecognizable element is ignored.  02
0142:Unrecognizable element is ignored.  MENS
0145:Unrecognizable element is ignored.  ST-ERRO 
0145:Unrecognizable element is ignored.  = 
0145:Unrecognizable element is ignored.  22
0146:Unrecognizable element is ignored.  MENS
0151:Unrecognizable element is ignored.  MENS
0163:Statement deleted due to erroneous syntax. WS-ACT
0163:Unrecognizable element is ignored.  FROM
0163:Unrecognizable element is ignored.  ESCAPE
0163:Unrecognizable element is ignored.  KEY 
0164:Unrecognizable element is ignored.  WS-ACT
0164:Unrecognizable element is ignored.  NOT 
0164:Unrecognizable element is ignored.  = 
0164:Unrecognizable element is ignored.  02
0164:Unrecognizable element is ignored.  AND 
0164:Unrecognizable element is ignored.  WS-ACT
0164:Unrecognizable element is ignored.  NOT 
0164:Unrecognizable element is ignored.  = 
0164:Unrecognizable element is ignored.  03
0164:Unrecognizable element is ignored.  AND 
0164:Unrecognizable element is ignored.  WS-ACT
0164:Unrecognizable element is ignored.  NOT 
0164:Unrecognizable element is ignored.  = 
0168:Unrecognizable element is ignored.  WS-ACT
0168:Unrecognizable element is ignored.  = 
0168:Unrecognizable element is ignored.  02
0171:Unrecognizable element is ignored.  WS-ACT
0171:Unrecognizable element is ignored.  = 
0171:Unrecognizable element is ignored.  03
0182:Unrecognizable element is ignored.  WS-ME 
0187:Unrecognizable element is ignored.  ST-ERRO 
0187:Unrecognizable element is ignored.  = 
0187:Unrecognizable element is ignored.  00
0188:Unrecognizable element is ignored.  MENS
0191:Unrecognizable element is ignored.  MENS
0198:Statement deleted due to erroneous syntax. WS-ACT
0198:Unrecognizable element is ignored.  FROM
0198:Unrecognizable element is ignored.  ESCAPE
0198:Unrecognizable element is ignored.  KEY 
0199:Unrecognizable element is ignored.  WS-ACT
0199:Unrecognizable element is ignored.  = 
0199:Unrecognizable element is ignored.  02
0205:Unrecognizable element is ignored.  WS-ME 
0210:Unrecognizable element is ignored.  ST-ERRO 
0210:Unrecognizable element is ignored.  = 
0210:Unrecognizable element is ignored.  00
0210:Unrecognizable element is ignored.  OR
0210:Unrecognizable element is ignored.  02
0236:Unrecognizable element is ignored.  WS-CONT 
0241:Statement deleted due to erroneous syntax. WS-CONT 

 P18201.COB                              Sat Aug 18 12:33:17 2018    Page   8
 line number source line   Microsoft COBOL                       Version 2.20

0242:Unrecognizable element is ignored.  WS-CONT 
0242:Unrecognizable element is ignored.  < 
0242:Unrecognizable element is ignored.  3000
0245:Statement deleted due to erroneous syntax. LIMPA 

  155 errors or warnings

   Data area size =  1118
   Code area size =  1132

